…
The list entry $simulation provides the simulation runs that corresponds to each 
parameter set. Different to the single simulation without parameter changes is 
that now the simulated variables are not saved in a single tibble, but as a list 
of tibbles. In this case each simulated variable is saved in one tibble, where 
the first column of each tibble is the ‘date’ and the other columns are the 
individual simulation runs. Now the tibbles are named by the variables and each 
individual run saved in the tibbles is named ‘run_1’ to run ‘run_n’. In the 
example two variables were simulated, q_out$simulation$q_sur and 
q_out$simulation$q_lat. Each tibble holds the date and the runs 1 to 8:

```{r multiple sims}
q_sim$simulation
#> $q_sur
#> # A tibble: 3,653 x 9
#>    date       run_1 run_2 run_3 run_4 run_5 run_6 run_7 run_8
#>    <date>     <dbl> <dbl> <dbl> <dbl> <dbl> <dbl> <dbl> <dbl>
#>  1 2003-01-01 0.149 0.023 0.024 0.059 0.029 0.335 0.221 0.144
#>  2 2003-01-02 0.022 0.003 0.003 0.009 0.004 0.053 0.035 0.021
#>  3 2003-01-03 0.005 0.001 0.001 0.002 0.001 0.013 0.008 0.005
#>  4 2003-01-04 0.001 0     0     0.001 0     0.003 0.002 0.001
#>  5 2003-01-05 0     0     0     0     0     0.001 0.001 0    
#>  6 2003-01-06 0     0     0     0     0     0     0     0    
#>  7 2003-01-07 0     0     0     0     0     0     0     0    
#>  8 2003-01-08 0     0     0     0     0     0     0     0    
#>  9 2003-01-09 0     0     0     0     0     0     0     0    
#> 10 2003-01-10 0     0     0     0     0     0     0     0    
#> # … with 3,643 more rows
#> 
#> $q_lat
#> # A tibble: 3,653 x 9
#>    date       run_1 run_2 run_3 run_4 run_5 run_6 run_7 run_8
#>    <date>     <dbl> <dbl> <dbl> <dbl> <dbl> <dbl> <dbl> <dbl>
#>  1 2003-01-01 2.27  2.52  2.52  2.44  2.51  1.81  2.06  2.28 
#>  2 2003-01-02 1.67  1.9   1.90  1.82  1.89  1.32  1.51  1.68 
#>  3 2003-01-03 1.34  1.54  1.54  1.47  1.53  1.05  1.21  1.34 
#>  4 2003-01-04 1.14  1.32  1.32  1.26  1.31  0.894 1.03  1.15 
#>  5 2003-01-05 1.03  1.19  1.19  1.13  1.18  0.802 0.931 1.03 
#>  6 2003-01-06 0.956 1.10  1.10  1.05  1.10  0.744 0.866 0.961
#>  7 2003-01-07 0.906 1.04  1.04  0.994 1.03  0.704 0.822 0.911
#>  8 2003-01-08 0.869 0.995 0.994 0.952 0.988 0.675 0.788 0.874
#>  9 2003-01-09 0.838 0.957 0.956 0.917 0.95  0.651 0.761 0.843
#> 10 2003-01-10 0.812 0.925 0.925 0.888 0.919 0.63  0.737 0.817
#> # … with 3,643 more rows
```
…
#> 6   8.37   0.571
#> 7   4.52   0.408
#> 8   0.0230 0.115
#> 
#> $parameter$definition
#> # A tibble: 2 x 4
#>   par_name parameter file_name change
#>   <chr>    <chr>     <chr>     <chr> 
#> 1 cn2      cn2       hru       abschg
#> 2 alpha    alpha     gw        absval
#> 
#> 
#> $simulation
#> $simulation$q_lat
#> # A tibble: 3,653 x 4
#>    date                run_1 run_2 run_3
#>    <dttm>              <dbl> <dbl> <dbl>
#>  1 2003-01-01 00:00:00 2.27  2.52  2.52 
#>  2 2003-01-02 00:00:00 1.67  1.9   1.90 
#>  3 2003-01-03 00:00:00 1.34  1.54  1.54 
#>  4 2003-01-04 00:00:00 1.14  1.32  1.32 
#>  5 2003-01-05 00:00:00 1.03  1.19  1.19 
#>  6 2003-01-06 00:00:00 0.956 1.10  1.10 
#>  7 2003-01-07 00:00:00 0.906 1.04  1.04 
#>  8 2003-01-08 00:00:00 0.869 0.995 0.994
#>  9 2003-01-09 00:00:00 0.838 0.957 0.956
#> 10 2003-01-10 00:00:00 0.812 0.925 0.925
#> # … with 3,643 more rows
```
…
