…
# Random sampling with runif()

The most basic way to draw random parameter samples is to use the base R 
function runif(). With runif() you can create a uniformly distributed vector. To 
draw a specific number of parameter sets with runif() you have to create a 
vector with that number of random values for each parameter and transform them 
to their parameter ranges. Below you find a very efficient approach to create a 
table of parameter combinations using a map*() function from the functional 
programming package purrr:

```{r runif sample}
n_sample <- 250
par_runif <- map_df(par_bound, ~ runif(n_sample, .x[1], .x[2])) # 1st row is min, 2nd max
par_runif
#> # A tibble: 250 x 7
#>    `cn2.hru | chan… `lat_ttime.hru … `lat_len.hru | … `k.sol | change…
#>               <dbl>            <dbl>            <dbl>            <dbl>
#>  1           -0.982            0.828             46.7             1.33
#>  2           -5.45             6.95              51.4           -14.8 
#>  3           -7.30            14.8               86.0           -23.4 
#>  4            1.95             7.21              12.4           -15.6 
#>  5           -2.82            13.0               36.6            47.0 
#>  6          -14.7              5.72              83.5           -41.2 
#>  7           -5.75            41.4               13.4           -25.4 
#>  8          -13.0             46.7               19.8           -31.3 
#>  9          -13.9             23.1               62.6           -44.3 
#> 10            0.174           33.3               29.8           -35.1 
#> # … with 240 more rows, and 3 more variables: `z.sol | change =
#> #   pctchg` <dbl>, `esco.hru | change = absval` <dbl>, `epco.hru | change
#> #   = absval` <dbl>
```
…
ggplot(data = dotty_cal2) +
  geom_point(aes(x = parameter_range, y = nse)) +
  facet_wrap(.~par, ncol = 3, scales = "free_x") +
  theme_bw()
```

We now see parameter fronts on all variables.

To get an overview of the NSE values for the best simulation runs simply run the 
following command:

```{r best nse}
sort(nse_cal2, decreasing = T) %>% enframe()
## A tibble: 250 x 2
#   name    value
#   <chr>   <dbl>
# 1 run_163 0.756
# 2 run_124 0.756
# 3 run_164 0.751
# 4 run_067 0.747
# 5 run_064 0.744
# 6 run_228 0.743
# 7 run_220 0.738
# 8 run_013 0.735
# 9 run_002 0.733
#10 run_203 0.732
# ... with 240 more rows
```
…
